{
  "ExtendedData": {
    "inputs": [
      "http://jbnav.sunwardpharma.com:7147/TEST/WS/SWMY TEST/Codeunit/WebIntegration"
    ],
    "collectionTypes": [
      "System.Collections.Generic.Dictionary`2",
      "System.Collections.Generic.List`1"
    ],
    "namespaceMappings": [
      "*, WebIntegration"
    ],
    "references": [
      "AutoMapper, {AutoMapper, 9.0.0}",
      "AutoMapper.Extensions.Microsoft.DependencyInjection, {AutoMapper.Extensions.Microsoft.DependencyInjection, 7.0.0}",
      "BouncyCastle.Crypto, {Portable.BouncyCastle, 1.8.9}",
      "ClosedXML, {ClosedXML, 0.95.3}",
      "Common.Logging, {Common.Logging, 3.4.1}",
      "Common.Logging.Core, {Common.Logging.Core, 3.4.1}",
      "D:\\Work\\SunwardPortal\\APP.TaskManagementSystem\\bin\\Debug\\netcoreapp3.1\\APP.BussinessObject.dll",
      "D:\\Work\\SunwardPortal\\APP.TaskManagementSystem\\bin\\Debug\\netcoreapp3.1\\APP.Common.dll",
      "D:\\Work\\SunwardPortal\\APP.TaskManagementSystem\\bin\\Debug\\netcoreapp3.1\\APP.DataAccess.dll",
      "D:\\Work\\SunwardPortal\\APP.TaskManagementSystem\\bin\\Debug\\netcoreapp3.1\\APP.EntityModel.dll",
      "D:\\Work\\SunwardPortal\\APP.TaskManagementSystem\\bin\\Debug\\netcoreapp3.1\\Microsoft.Office.Interop.Excel.dll",
      "D:\\Work\\SunwardPortal\\APP.TaskManagementSystem\\bin\\Debug\\netcoreapp3.1\\OpenXmlPowerTools.dll",
      "DinkToPdf, {DinkToPdf, 1.0.8}",
      "DocumentFormat.OpenXml, {DocumentFormat.OpenXml, 2.12.2}",
      "dotnet-aspnet-codegenerator-design, {Microsoft.VisualStudio.Web.CodeGeneration.Design, 3.1.4}",
      "EPPlus.Core, {EPPlus.Core, 1.5.4}",
      "ExcelNumberFormat, {ExcelNumberFormat, 1.0.10}",
      "Hangfire.AspNetCore, {Hangfire.AspNetCore, 1.7.16}",
      "Hangfire.Core, {Hangfire.Core, 1.7.16}",
      "Hangfire.MemoryStorage, {Hangfire.MemoryStorage, 1.7.0}",
      "itext.barcodes, {itext7, 7.1.14}",
      "itext.forms, {itext7, 7.1.14}",
      "itext.io, {itext7, 7.1.14}",
      "itext.kernel, {itext7, 7.1.14}",
      "itext.layout, {itext7, 7.1.14}",
      "itext.pdfa, {itext7, 7.1.14}",
      "itext.sign, {itext7, 7.1.14}",
      "itext.styledxmlparser, {itext7, 7.1.14}",
      "itext.svg, {itext7, 7.1.14}",
      "MailKit, {MailKit, 2.8.0}",
      "Microsoft.AspNetCore.Authentication.Abstractions, {Microsoft.AspNetCore.Authentication.Abstractions, 2.2.0}",
      "Microsoft.AspNetCore.Authentication.JwtBearer, {Microsoft.AspNetCore.Authentication.JwtBearer, 3.1.4}",
      "Microsoft.AspNetCore.Authorization, {Microsoft.AspNetCore.Authorization, 2.2.0}",
      "Microsoft.AspNetCore.Authorization.Policy, {Microsoft.AspNetCore.Authorization.Policy, 2.2.0}",
      "Microsoft.AspNetCore.Connections.Abstractions, {Microsoft.AspNetCore.Connections.Abstractions, 2.2.0}",
      "Microsoft.AspNetCore.Hosting.Abstractions, {Microsoft.AspNetCore.Hosting.Abstractions, 2.2.0}",
      "Microsoft.AspNetCore.Hosting.Server.Abstractions, {Microsoft.AspNetCore.Hosting.Server.Abstractions, 2.2.0}",
      "Microsoft.AspNetCore.Html.Abstractions, {Microsoft.AspNetCore.Html.Abstractions, 2.2.0}",
      "Microsoft.AspNetCore.Http, {Microsoft.AspNetCore.Http, 2.2.0}",
      "Microsoft.AspNetCore.Http.Abstractions, {Microsoft.AspNetCore.Http.Abstractions, 2.2.0}",
      "Microsoft.AspNetCore.Http.Connections, {Microsoft.AspNetCore.Http.Connections, 1.1.0}",
      "Microsoft.AspNetCore.Http.Connections.Common, {Microsoft.AspNetCore.Http.Connections.Common, 1.1.0}",
      "Microsoft.AspNetCore.Http.Extensions, {Microsoft.AspNetCore.Http.Extensions, 2.2.0}",
      "Microsoft.AspNetCore.Http.Features, {Microsoft.AspNetCore.Http.Features, 2.2.0}",
      "Microsoft.AspNetCore.JsonPatch, {Microsoft.AspNetCore.JsonPatch, 3.1.4}",
      "Microsoft.AspNetCore.Mvc.NewtonsoftJson, {Microsoft.AspNetCore.Mvc.NewtonsoftJson, 3.1.4}",
      "Microsoft.AspNetCore.Razor, {Microsoft.AspNetCore.Razor, 2.2.0}",
      "Microsoft.AspNetCore.Razor.Language, {Microsoft.AspNetCore.Razor.Language, 3.1.0}",
      "Microsoft.AspNetCore.Razor.Runtime, {Microsoft.AspNetCore.Razor.Runtime, 2.2.0}",
      "Microsoft.AspNetCore.Routing, {Microsoft.AspNetCore.Routing, 2.2.0}",
      "Microsoft.AspNetCore.Routing.Abstractions, {Microsoft.AspNetCore.Routing.Abstractions, 2.2.0}",
      "Microsoft.AspNetCore.SignalR, {Microsoft.AspNetCore.SignalR, 1.1.0}",
      "Microsoft.AspNetCore.SignalR.Common, {Microsoft.AspNetCore.SignalR.Common, 1.1.0}",
      "Microsoft.AspNetCore.SignalR.Core, {Microsoft.AspNetCore.SignalR.Core, 1.1.0}",
      "Microsoft.AspNetCore.SignalR.Protocols.Json, {Microsoft.AspNetCore.SignalR.Protocols.Json, 1.1.0}",
      "Microsoft.AspNetCore.WebSockets, {Microsoft.AspNetCore.WebSockets, 2.2.0}",
      "Microsoft.AspNetCore.WebUtilities, {Microsoft.AspNetCore.WebUtilities, 2.2.0}",
      "Microsoft.Bcl.AsyncInterfaces, {Microsoft.Bcl.AsyncInterfaces, 1.1.1}",
      "Microsoft.Bcl.HashCode, {Microsoft.Bcl.HashCode, 1.1.0}",
      "Microsoft.CodeAnalysis, {Microsoft.CodeAnalysis.Common, 3.3.1}",
      "Microsoft.CodeAnalysis.CSharp, {Microsoft.CodeAnalysis.CSharp, 3.3.1}",
      "Microsoft.CodeAnalysis.CSharp.Workspaces, {Microsoft.CodeAnalysis.CSharp.Workspaces, 3.3.1}",
      "Microsoft.CodeAnalysis.Razor, {Microsoft.CodeAnalysis.Razor, 3.1.0}",
      "Microsoft.CodeAnalysis.Workspaces, {Microsoft.CodeAnalysis.Workspaces.Common, 3.3.1}",
      "Microsoft.Data.Edm, {Microsoft.Data.Edm, 5.8.4}",
      "Microsoft.Data.OData, {Microsoft.Data.OData, 5.8.4}",
      "Microsoft.Data.Services.Client, {Microsoft.Data.Services.Client, 5.8.4}",
      "Microsoft.Data.SqlClient, {Microsoft.Data.SqlClient, 1.0.19269.1}",
      "Microsoft.DotNet.PlatformAbstractions, {Microsoft.DotNet.PlatformAbstractions, 1.1.0}",
      "Microsoft.EntityFrameworkCore, {Microsoft.EntityFrameworkCore, 3.1.4}",
      "Microsoft.EntityFrameworkCore.Abstractions, {Microsoft.EntityFrameworkCore.Abstractions, 3.1.4}",
      "Microsoft.EntityFrameworkCore.Relational, {Microsoft.EntityFrameworkCore.Relational, 3.1.4}",
      "Microsoft.EntityFrameworkCore.SqlServer, {Microsoft.EntityFrameworkCore.SqlServer, 3.1.4}",
      "Microsoft.Extensions.Caching.Abstractions, {Microsoft.Extensions.Caching.Abstractions, 3.1.4}",
      "Microsoft.Extensions.Caching.Memory, {Microsoft.Extensions.Caching.Memory, 3.1.4}",
      "Microsoft.Extensions.Configuration, {Microsoft.Extensions.Configuration, 3.1.4}",
      "Microsoft.Extensions.Configuration.Abstractions, {Microsoft.Extensions.Configuration.Abstractions, 3.1.4}",
      "Microsoft.Extensions.Configuration.Binder, {Microsoft.Extensions.Configuration.Binder, 3.1.4}",
      "Microsoft.Extensions.DependencyInjection, {Microsoft.Extensions.DependencyInjection, 3.1.4}",
      "Microsoft.Extensions.DependencyInjection.Abstractions, {Microsoft.Extensions.DependencyInjection.Abstractions, 3.1.4}",
      "Microsoft.Extensions.DependencyModel, {Microsoft.Extensions.DependencyModel, 1.1.0}",
      "Microsoft.Extensions.FileProviders.Abstractions, {Microsoft.Extensions.FileProviders.Abstractions, 2.2.0}",
      "Microsoft.Extensions.Hosting.Abstractions, {Microsoft.Extensions.Hosting.Abstractions, 2.2.0}",
      "Microsoft.Extensions.Logging, {Microsoft.Extensions.Logging, 3.1.4}",
      "Microsoft.Extensions.Logging.Abstractions, {Microsoft.Extensions.Logging.Abstractions, 3.1.4}",
      "Microsoft.Extensions.ObjectPool, {Microsoft.Extensions.ObjectPool, 2.2.0}",
      "Microsoft.Extensions.Options, {Microsoft.Extensions.Options, 3.1.4}",
      "Microsoft.Extensions.Primitives, {Microsoft.Extensions.Primitives, 3.1.4}",
      "Microsoft.IdentityModel.JsonWebTokens, {Microsoft.IdentityModel.JsonWebTokens, 6.5.1}",
      "Microsoft.IdentityModel.Logging, {Microsoft.IdentityModel.Logging, 6.5.1}",
      "Microsoft.IdentityModel.Protocols, {Microsoft.IdentityModel.Protocols, 5.5.0}",
      "Microsoft.IdentityModel.Protocols.OpenIdConnect, {Microsoft.IdentityModel.Protocols.OpenIdConnect, 5.5.0}",
      "Microsoft.IdentityModel.Tokens, {Microsoft.IdentityModel.Tokens, 6.5.1}",
      "Microsoft.IO.RecyclableMemoryStream, {Microsoft.IO.RecyclableMemoryStream, 2.2.0}",
      "Microsoft.Net.Http.Headers, {Microsoft.Net.Http.Headers, 2.2.0}",
      "Microsoft.OData.Client, {Microsoft.OData.Client, 7.6.4}",
      "Microsoft.OData.Core, {Microsoft.OData.Core, 7.6.4}",
      "Microsoft.OData.Edm, {Microsoft.OData.Edm, 7.6.4}",
      "Microsoft.Office.Interop.Word, {Microsoft.Office.Interop.Word, 15.0.4797.1003}",
      "Microsoft.OpenApi, {Microsoft.OpenApi, 1.1.4}",
      "Microsoft.Spatial, {Microsoft.Spatial, 7.6.4}",
      "Microsoft.VisualStudio.Web.CodeGeneration, {Microsoft.VisualStudio.Web.CodeGeneration, 3.1.4}",
      "Microsoft.VisualStudio.Web.CodeGeneration.Contracts, {Microsoft.VisualStudio.Web.CodeGeneration.Contracts, 3.1.4}",
      "Microsoft.VisualStudio.Web.CodeGeneration.Core, {Microsoft.VisualStudio.Web.CodeGeneration.Core, 3.1.4}",
      "Microsoft.VisualStudio.Web.CodeGeneration.EntityFrameworkCore, {Microsoft.VisualStudio.Web.CodeGeneration.EntityFrameworkCore, 3.1.4}",
      "Microsoft.VisualStudio.Web.CodeGeneration.Templating, {Microsoft.VisualStudio.Web.CodeGeneration.Templating, 3.1.4}",
      "Microsoft.VisualStudio.Web.CodeGeneration.Utils, {Microsoft.VisualStudio.Web.CodeGeneration.Utils, 3.1.4}",
      "Microsoft.VisualStudio.Web.CodeGenerators.Mvc, {Microsoft.VisualStudio.Web.CodeGenerators.Mvc, 3.1.4}",
      "Microsoft.Win32.Primitives, {Microsoft.Win32.Primitives, 4.3.0}",
      "MimeKit, {MimeKit, 2.9.1}",
      "MsgReader, {MsgReader, 4.3.1}",
      "Newtonsoft.Json, {Newtonsoft.Json, 12.0.3}",
      "Newtonsoft.Json.Bson, {Newtonsoft.Json.Bson, 1.0.2}",
      "NLog, {NLog, 4.6.8}",
      "NLog.Extensions.Logging, {NLog.Extensions.Logging, 1.6.2}",
      "NLog.Web.AspNetCore, {NLog.Web.AspNetCore, 4.9.2}",
      "NuGet.Frameworks, {NuGet.Frameworks, 4.7.0}",
      "OpenMcdf, {OpenMcdf, 2.2.1.9}",
      "RtfPipe, {RtfPipe, 2.0.7677.4303}",
      "Simple.OData.Client.Core, {Simple.OData.Client, 5.12.0}",
      "Simple.OData.Client.Dynamic, {Simple.OData.Client, 5.12.0}",
      "Simple.OData.Client.V3.Adapter, {Simple.OData.Client, 5.12.0}",
      "Simple.OData.Client.V4.Adapter, {Simple.OData.Client, 5.12.0}",
      "SkiaSharp, {SkiaSharp, 1.68.0}",
      "Spire.Doc, {FreeSpire.Doc, 9.9.7}",
      "Spire.License, {FreeSpire.Doc, 9.9.7}",
      "Spire.Pdf, {FreeSpire.Doc, 9.9.7}",
      "Swashbuckle.AspNetCore.Swagger, {Swashbuckle.AspNetCore.Swagger, 5.4.1}",
      "Swashbuckle.AspNetCore.SwaggerGen, {Swashbuckle.AspNetCore.SwaggerGen, 5.4.1}",
      "Swashbuckle.AspNetCore.SwaggerUI, {Swashbuckle.AspNetCore.SwaggerUI, 5.4.1}",
      "System.AppContext, {System.AppContext, 4.3.0}",
      "System.Collections, {System.Collections, 4.3.0}",
      "System.Collections.Concurrent, {System.Collections.Concurrent, 4.3.0}",
      "System.Collections.Immutable, {System.Collections.Immutable, 1.7.1}",
      "System.Collections.NonGeneric, {System.Collections.NonGeneric, 4.3.0}",
      "System.ComponentModel.Annotations, {System.ComponentModel.Annotations, 4.7.0}",
      "System.ComponentModel.EventBasedAsync, {System.ComponentModel.EventBasedAsync, 4.0.11}",
      "System.Composition.AttributedModel, {System.Composition.AttributedModel, 1.0.31}",
      "System.Composition.Convention, {System.Composition.Convention, 1.0.31}",
      "System.Composition.Hosting, {System.Composition.Hosting, 1.0.31}",
      "System.Composition.Runtime, {System.Composition.Runtime, 1.0.31}",
      "System.Composition.TypedParts, {System.Composition.TypedParts, 1.0.31}",
      "System.Configuration.ConfigurationManager, {System.Configuration.ConfigurationManager, 5.0.0}",
      "System.Console, {System.Console, 4.3.0}",
      "System.Data.Common, {System.Data.Common, 4.3.0}",
      "System.Data.SqlClient, {System.Data.SqlClient, 4.8.1}",
      "System.Diagnostics.Debug, {System.Diagnostics.Debug, 4.3.0}",
      "System.Diagnostics.DiagnosticSource, {System.Diagnostics.DiagnosticSource, 4.7.1}",
      "System.Diagnostics.Process, {System.Diagnostics.Process, 4.3.0}",
      "System.Diagnostics.Tools, {System.Diagnostics.Tools, 4.3.0}",
      "System.Diagnostics.Tracing, {System.Diagnostics.Tracing, 4.3.0}",
      "System.Drawing.Common, {System.Drawing.Common, 5.0.2}",
      "System.Dynamic.Runtime, {System.Dynamic.Runtime, 4.0.11}",
      "System.Globalization, {System.Globalization, 4.3.0}",
      "System.Globalization.Calendars, {System.Globalization.Calendars, 4.3.0}",
      "System.Globalization.Extensions, {System.Globalization.Extensions, 4.3.0}",
      "System.IdentityModel.Tokens.Jwt, {System.IdentityModel.Tokens.Jwt, 6.5.1}",
      "System.IO, {System.IO, 4.3.0}",
      "System.IO.Compression, {System.IO.Compression, 4.3.0}",
      "System.IO.Compression.ZipFile, {System.IO.Compression.ZipFile, 4.3.0}",
      "System.IO.FileSystem, {System.IO.FileSystem, 4.3.0}",
      "System.IO.FileSystem.Primitives, {System.IO.FileSystem.Primitives, 4.3.0}",
      "System.IO.Packaging, {System.IO.Packaging, 4.7.0}",
      "System.IO.Pipelines, {System.IO.Pipelines, 4.5.2}",
      "System.Linq, {System.Linq, 4.3.0}",
      "System.Linq.Dynamic.Core, {System.Linq.Dynamic.Core, 1.2.7}",
      "System.Linq.Expressions, {System.Linq.Expressions, 4.3.0}",
      "System.Linq.Queryable, {System.Linq.Queryable, 4.3.0}",
      "System.Net.Http, {System.Net.Http, 4.3.0}",
      "System.Net.Http.Formatting, {Microsoft.AspNet.WebApi.Client, 5.2.7}",
      "System.Net.NameResolution, {System.Net.NameResolution, 4.3.0}",
      "System.Net.Primitives, {System.Net.Primitives, 4.3.0}",
      "System.Net.Requests, {System.Net.Requests, 4.3.0}",
      "System.Net.Security, {System.Net.Security, 4.3.2}",
      "System.Net.Sockets, {System.Net.Sockets, 4.3.0}",
      "System.Net.WebHeaderCollection, {System.Net.WebHeaderCollection, 4.3.0}",
      "System.Net.WebSockets.WebSocketProtocol, {System.Net.WebSockets.WebSocketProtocol, 4.5.1}",
      "System.ObjectModel, {System.ObjectModel, 4.3.0}",
      "System.Reflection, {System.Reflection, 4.3.0}",
      "System.Reflection.DispatchProxy, {System.Reflection.DispatchProxy, 4.5.0}",
      "System.Reflection.Extensions, {System.Reflection.Extensions, 4.3.0}",
      "System.Reflection.Metadata, {System.Reflection.Metadata, 1.6.0}",
      "System.Reflection.Primitives, {System.Reflection.Primitives, 4.3.0}",
      "System.Resources.ResourceManager, {System.Resources.ResourceManager, 4.3.0}",
      "System.Runtime, {System.Runtime, 4.3.0}",
      "System.Runtime.CompilerServices.Unsafe, {System.Runtime.CompilerServices.Unsafe, 4.5.2}",
      "System.Runtime.Extensions, {System.Runtime.Extensions, 4.3.0}",
      "System.Runtime.Handles, {System.Runtime.Handles, 4.3.0}",
      "System.Runtime.InteropServices, {System.Runtime.InteropServices, 4.3.0}",
      "System.Runtime.InteropServices.RuntimeInformation, {System.Runtime.InteropServices.RuntimeInformation, 4.3.0}",
      "System.Runtime.Loader, {System.Runtime.Loader, 4.3.0}",
      "System.Runtime.Numerics, {System.Runtime.Numerics, 4.3.0}",
      "System.Runtime.Serialization.Formatters, {System.Runtime.Serialization.Formatters, 4.3.0}",
      "System.Runtime.Serialization.Primitives, {System.Runtime.Serialization.Primitives, 4.3.0}",
      "System.Security.AccessControl, {System.Security.AccessControl, 5.0.0}",
      "System.Security.Claims, {System.Security.Claims, 4.3.0}",
      "System.Security.Cryptography.Algorithms, {System.Security.Cryptography.Algorithms, 4.3.0}",
      "System.Security.Cryptography.Cng, {System.Security.Cryptography.Cng, 5.0.0}",
      "System.Security.Cryptography.Csp, {System.Security.Cryptography.Csp, 4.3.0}",
      "System.Security.Cryptography.Encoding, {System.Security.Cryptography.Encoding, 4.3.0}",
      "System.Security.Cryptography.Pkcs, {System.Security.Cryptography.Pkcs, 5.0.1}",
      "System.Security.Cryptography.Primitives, {System.Security.Cryptography.Primitives, 4.3.0}",
      "System.Security.Cryptography.X509Certificates, {System.Security.Cryptography.X509Certificates, 4.3.0}",
      "System.Security.Cryptography.Xml, {System.Security.Cryptography.Xml, 4.5.0}",
      "System.Security.Permissions, {System.Security.Permissions, 5.0.0}",
      "System.Security.Principal, {System.Security.Principal, 4.3.0}",
      "System.Security.Principal.Windows, {System.Security.Principal.Windows, 5.0.0}",
      "System.ServiceModel, {System.ServiceModel.Primitives, 4.7.0}",
      "System.ServiceModel.Duplex, {System.ServiceModel.Duplex, 4.7.0}",
      "System.ServiceModel.Http, {System.ServiceModel.Http, 4.7.0}",
      "System.ServiceModel.NetTcp, {System.ServiceModel.NetTcp, 4.7.0}",
      "System.ServiceModel.Primitives, {System.ServiceModel.Primitives, 4.7.0}",
      "System.ServiceModel.Security, {System.ServiceModel.Security, 4.7.0}",
      "System.Spatial, {System.Spatial, 5.8.4}",
      "System.Text.Encoding, {System.Text.Encoding, 4.3.0}",
      "System.Text.Encoding.CodePages, {System.Text.Encoding.CodePages, 4.5.1}",
      "System.Text.Encoding.Extensions, {System.Text.Encoding.Extensions, 4.3.0}",
      "System.Text.Encodings.Web, {System.Text.Encodings.Web, 4.5.0}",
      "System.Text.Json, {System.Text.Json, 4.7.2}",
      "System.Text.RegularExpressions, {System.Text.RegularExpressions, 4.3.0}",
      "System.Threading, {System.Threading, 4.3.0}",
      "System.Threading.Channels, {System.Threading.Channels, 6.0.0}",
      "System.Threading.Tasks, {System.Threading.Tasks, 4.3.0}",
      "System.Threading.Thread, {System.Threading.Thread, 4.3.0}",
      "System.Threading.ThreadPool, {System.Threading.ThreadPool, 4.3.0}",
      "System.Threading.Timer, {System.Threading.Timer, 4.3.0}",
      "System.Windows.Extensions, {System.Windows.Extensions, 5.0.0}",
      "System.Xml.ReaderWriter, {System.Xml.ReaderWriter, 4.3.0}",
      "System.Xml.XDocument, {System.Xml.XDocument, 4.3.0}",
      "System.Xml.XmlDocument, {System.Xml.XmlDocument, 4.3.0}",
      "System.Xml.XPath, {System.Xml.XPath, 4.3.0}",
      "System.Xml.XPath.XmlDocument, {System.Xml.XPath.XmlDocument, 4.3.0}",
      "Westwind.Utilities, {Westwind.Utilities, 3.0.41}",
      "Z.Dapper.Plus, {Z.Dapper.Plus, 4.0.31}",
      "Z.EntityFramework.Extensions.EFCore, {Z.EntityFramework.Extensions.EFCore, 3.14.3}",
      "Z.EntityFramework.Plus.EFCore, {Z.EntityFramework.Plus.EFCore, 3.14.3}",
      "Z.Expressions.Eval, {Z.Expressions.Eval, 4.0.86}",
      "ZNetCS.AspNetCore.Compression, {ZNetCS.AspNetCore.Compression, 2.2.0}"
    ],
    "targetFramework": "netcoreapp3.1",
    "typeReuseMode": "All"
  }
}